MIN frequency change test: 600000 == 600000
MAX frequency change test: 1200000 == 1200000
deadline: 200000   exec time: 6358 us
deadline: 500000   exec time: 20533 us
deadline: 600000   exec time: 46821 us
deadline: 400000   exec time: 27149 us
deadline: 600000   exec time: 36501 us
deadline: 600000   exec time: 38730 us
deadline: 300000   exec time: 40941 us
deadline: 150000   exec time: 42099 us
Start Scheduling with 8 threads
deadline    :   199550   499550   599550   399550   599550   599550   299550   149550 
deadline    :   190360   490360   590360   390360   590360   590360   290360   140360 
deadline    :   185976   485976   585976   385976   585976   585976   285976   164024 
deadline    :   180399   480399   580399   380399   580399   580399   280399   169601 
deadline    :   225230   474770   574770   374770   574770   574770   274770   175230 
deadline    :   229605   470395   570395   370395   570395   570395   270395   179605 
deadline    :   239599   460401   560401   360401   560401   560401   260401   189599 
deadline    :   249599   450401   550401   350401   550401   550401   250401   199599 
deadline    :   259598   440402   540402   340402   540402   540402   240402   209598 
deadline    :   269610   430390   530390   330390   530390   530390   230390   219610 
deadline    :   279598   420402   520402   320402   520402   520402   220402   229598 
deadline    :   289598   410402   510402   310402   510402   510402   210402   239598 
deadline    :   299262   400738   500738   300738   500738   500738   399262   249262 
deadline    :   299598   400402   500402   300402   500402   500402   399598   249598 
deadline    :   309597   390403   490403   290403   490403   490403   409597   259597 
deadline    :   319597   380403   480403   280403   480403   480403   419597   269597 
deadline    :   329597   370403   470403   270403   470403   470403   429597   279597 
deadline    :   339597   360403   460403   260403   460403   460403   439597   289597 
deadline    :   345763   354237   454237   545763   454237   454237   445763   295763 
deadline    :   349599   350401   450401   549599   450401   450401   449599   299599 
deadline    :   359661   340339   440339   559661   440339   440339   459661   289537 
deadline    :   369598   330402   430402   569598   430402   430402   469598   279600 
deadline    :   371779   328221   428221   571779   428221   428221   471779   321779 
deadline    :   379598   320402   420402   579598   420402   420402   479598   329598 
deadline    :   389597   310403   410403   589597   410403   410403   489597   339597 
deadline    :   392727   692727   407273   592727   407273   407273   492727   342727 
deadline    :   399606   699606   400394   599606   400394   400394   499606   349606 
deadline    :   389542   709670   390330   609670   390330   390330   509670   359670 
deadline    :   379613   719599   380401   619599   380401   380401   519599   369599 
deadline    :   369615   729597   370403   629597   370403   370403   529597   379597 
deadline    :   359609   739603   360397   639603   360397   360397   539603   389603 
deadline    :   349614   749598   350402   649598   350402   350402   549598   399598 
deadline    :   339614   759598   340402   659598   340402   340402   559598   409598 
deadline    :   329608   769604   330396   669604   330396   330396   569604   419604 
deadline    :   319607   779605   320395   679605   320395   320395   579605   429605 
deadline    :   309614   789598   310402   689598   310402   310402   589598   439598 
deadline    :   299609   799603   300397   699603   300397   300397   599603   449603 
deadline    :   289548   809664   290336   709664   290336   290336   589542   439542 
deadline    :   515604   815604   284396   715604   284396   284396   583602   433602 
deadline    :   519581   819581   280419   719581   280419   280419   579625   429625 
deadline    :   529578   829578   270422   729578   270422   270422   569628   419628 
deadline    :   539600   839600   260400   739600   260400   260400   559606   409606 
deadline    :   549515   849515   250485   749515   250485   949515   549691   399691 
deadline    :   554402   854402   245598   754402   954402   954402   544804   394804 
deadline    :   559425   859425   959425   759425   959425   959425   539781   389781 
deadline    :   559588   859588   959588   759588   959588   959588   539618   389618 
deadline    :   565549   865549   965549   765549   965549   965549   533657   515549 
deadline    :   569700   869700   969700   769700   969700   969700   529506   519700 
deadline    :   579606   879606   979606   779606   979606   979606   519600   529606 
deadline    :   589604   889604   989604   789604   989604   989604   509602   539604 
deadline    :   599603   899603   999603   799603   999603   999603   499603   549603 
deadline    :   589488   909718  1009718   789488  1009718  1009718   489488   559718 
deadline    :   579599   919607  1019607   779599  1019607  1019607   479599   569607 
deadline    :   569602   929604  1029604   769602  1029604  1029604   469602   579604 
deadline    :   559603   939603  1039603   759603  1039603  1039603   459603   589603 
deadline    :   557464   941742  1041742   757464  1041742  1041742   741742   591742 
deadline    :   549603   949603  1049603   749603  1049603  1049603   749603   599603 
deadline    :   654015   954015  1054015   745191  1054015  1054015   754015   595191 
deadline    :   659604   959604  1059604   739602  1059604  1059604   759604   589602 
deadline    :   666205   966205  1066205   733001  1066205  1066205   766205   616205 
deadline    :   669603   969603  1069603   729603  1069603  1069603   769603   619603 
deadline    :   679602   979602  1079602   719604  1079602  1079602   779602   629602 
deadline    :   689601   989601  1089601   709605  1089601  1089601   789601   639601 
deadline    :   699601   999601  1099601   699605  1099601  1099601   799601   649601 
deadline    :   709641   989561  1109641   689565  1109641  1109641   809641   659641 
deadline    :   713036   986166  1113036   913036  1113036  1113036   813036   663036 
deadline    :   719604   979598  1119604   919604  1119604  1119604   819604   669604 
deadline    :   729623   969579  1129623   929623  1129623  1129623   829623   679623 
deadline    :   739608   959594  1139608   939608  1139608  1139608   839608   689608 
deadline    :   678680  1100536  1078680  1000536  1078680  1078680   778680   628680 
deadline    :   671006  1108210  1071006  1008210  1071006  1071006   771006   758210 
deadline    :   659613  1119603  1059613  1019603  1059613  1059613   759613   769603 
deadline    :   820009  1120009  1059207  1020009  1059207  1059207   759207   770009 
deadline    :   829604  1129604  1049612  1029604  1049612  1049612   749612   779604 
deadline    :   839602  1139602  1039614  1039602  1039614  1039614   739614   789602 
deadline    :   849602  1149602  1029614  1049602  1029614  1029614   729614   799602 
deadline    :   859601  1159601  1019615  1059601  1019615  1019615   719615   809601 
deadline    :   869601  1169601  1009615  1069601  1009615  1009615   709615   819601 
deadline    :   879601  1179601   999615  1079601   999615   999615   699615   829601 
deadline    :   889601  1189601   989615  1089601   989615   989615   689615   839601 
deadline    :   893152  1193152   986064  1093152   986064   986064   993152   843152 
deadline    :   899610  1199610   979606  1099610   979606   979606   999610   849610 
deadline    :   909604  1209604   969612  1109604   969612   969612  1009604   859604 
deadline    :   919601  1219601   959615  1119601   959615   959615  1019601   869601 
deadline    :   929600  1229600   949616  1129600   949616   949616  1029600   879600 
deadline    :   939604  1239604   939612  1139604   939612   939612  1039604   889604 
deadline    :   949601  1249601   929615  1149601   929615   929615  1049601   899601 
deadline    :   959675  1259675   919541  1159675   919541   919541  1059675   889527 
deadline    :   969601  1269601   909615  1169601   909615   909615  1069601   879601 
deadline    :   971966  1271966   907250  1171966   907250   907250  1071966   921966 
deadline    :   979612  1279612   899604  1179612   899604   899604  1079612   929612 
deadline    :   989602  1289602   889614  1189602   889614   889614  1089602   939602 
deadline    :   999600  1299600   879616  1199600   879616   879616  1099600   949600 
deadline    :   989494  1309706   869510  1189494   869510   869510  1109706   959706 
deadline    :   979598  1319602   859614  1179598   859614   859614  1119602   969602 
deadline    :   969600  1329600   849616  1169600   849616   849616  1129600   979600 
deadline    :   959592  1339608   839608  1159592   839608   839608  1139608   989608 
deadline    :   949599  1349601   829615  1149599   829615   829615  1149601   999601 
deadline    :   939603  1359597   819619  1139603   819619   819619  1159597  1009597 
deadline    :   929597  1369603   809613  1129597   809613   809613  1169603  1019603 
deadline    :   920898  1378302   800914  1120898   800914  1478302  1178302  1028302 
deadline    :   919616  1379584   799632  1119616   799632  1479584  1179584  1029584 
deadline    :   915216  1383984   795232  1115216  1483984  1483984  1183984  1033984 
deadline    :   913528  1385672  1485672  1113528  1485672  1485672  1185672  1035672 
deadline    :   909541  1389659  1489659  1109541  1489659  1489659  1189659  1039659 
deadline    :  1099334  1399334  1499334  1099866  1499334  1499334  1199334  1049334 
deadline    :  1099603  1399603  1499603  1099597  1499603  1499603  1199603  1049603 
deadline    :  1109709  1409709  1509709  1089491  1509709  1509709  1189497  1039497 
deadline    :  1119602  1419602  1519602  1079598  1519602  1519602  1179604  1029604 
deadline    :  1122048  1422048  1522048  1077152  1522048  1522048  1177158  1072048 
deadline    :  1129601  1429601  1529601  1069599  1529601  1529601  1169605  1079601 
deadline    :  1139601  1439601  1539601  1059599  1539601  1539601  1159605  1089601 
deadline    :  1149601  1449601  1549601  1049599  1549601  1549601  1149605  1099601 
deadline    :  1158979  1458979  1558979  1358979  1558979  1558979  1140227  1108979 
deadline    :  1159602  1459602  1559602  1359602  1559602  1559602  1139604  1109602 
deadline    :  1169602  1469602  1569602  1369602  1569602  1569602  1129604  1119602 
deadline    :  1179601  1479601  1579601  1379601  1579601  1579601  1119605  1129601 
deadline    :  1189601  1489601  1589601  1389601  1589601  1589601  1109605  1139601 
deadline    :  1199601  1499601  1599601  1399601  1599601  1599601  1099605  1149601 
deadline    :  1189520  1489520  1609682  1409682  1609682  1609682  1089524  1159682 
deadline    :  1179599  1479599  1619603  1419603  1619603  1619603  1079603  1169603 
deadline    :  1169597  1469597  1629605  1429605  1629605  1629605  1069601  1179605 
deadline    :  1165100  1465100  1634102  1434102  1634102  1634102  1334102  1184102 
deadline    :  1159600  1459600  1639602  1439602  1639602  1639602  1339602  1189602 
deadline    :  1246449  1452753  1646449  1446449  1646449  1646449  1346449  1196449 
deadline    :  1249602  1449600  1649602  1449602  1649602  1649602  1349602  1199602 
deadline    :  1259642  1439560  1659642  1459642  1659642  1659642  1359642  1189562 
deadline    :  1269601  1429601  1669601  1469601  1669601  1669601  1369601  1179603 
deadline    :  1271992  1427210  1671992  1471992  1671992  1671992  1371992  1221992 
deadline    :  1279601  1419601  1679601  1479601  1679601  1679601  1379601  1229601 
deadline    :  1289600  1409602  1689600  1489600  1689600  1689600  1389600  1239600 
deadline    :  1178699  1700501  1578699  1378699  1578699  1578699  1278699  1128699 
deadline    :  1170984  1708216  1570984  1370984  1570984  1570984  1270984  1358216 
deadline    :  1169614  1709586  1569614  1369614  1569614  1569614  1269614  1359586 
deadline    :  1413494  1713494  1565706  1365706  1565706  1565706  1265706  1363494 
deadline    :  1419611  1719611  1559589  1359589  1559589  1559589  1259589  1369611 
deadline    :  1429604  1729604  1549596  1349596  1549596  1549596  1249596  1379604 
deadline    :  1439596  1739596  1539604  1339604  1539604  1539604  1239604  1389596 
deadline    :  1449587  1749587  1529613  1329613  1529613  1529613  1229613  1399587 
deadline    :  1459580  1759580  1519620  1319620  1519620  1519620  1219620  1409580 
deadline    :  1460973  1760973  1518227  1318227  1518227  1518227  1560973  1410973 
deadline    :  1469631  1769631  1509569  1309569  1509569  1509569  1569631  1419631 
deadline    :  1479607  1779607  1499593  1299593  1499593  1499593  1579607  1429607 
deadline    :  1489602  1789602  1489598  1289598  1489598  1489598  1589602  1439602 
deadline    :  1499609  1799609  1479591  1279591  1479591  1479591  1599609  1449609 
deadline    :  1505912  1805912  1473288  1705912  1473288  1473288  1605912  1455912 
deadline    :  1509644  1809644  1469556  1709644  1469556  1469556  1609644  1459644 
deadline    :  1519616  1819616  1459584  1719616  1459584  1459584  1619616  1469616 
deadline    :  1529604  1829604  1449596  1729604  1449596  1449596  1629604  1479604 
deadline    :  1539602  1839602  1439598  1739602  1439598  1439598  1639602  1489602 
deadline    :  1549606  1849606  1429594  1749606  1429594  1429594  1649606  1499606 
deadline    :  1559686  1859686  1419514  1759686  1419514  1419514  1659686  1489526 
deadline    :  1569603  1869603  1409597  1769603  1409597  1409597  1669603  1479609 
deadline    :  1579606  1879606  1399594  1779606  1399594  1399594  1679606  1469606 
deadline    :  1589602  1889602  1389598  1789602  1389598  1389598  1689602  1459610 
deadline    :  1599605  1899605  1379595  1799605  1379595  1379595  1699605  1449607 
deadline    :  1589539  1909671  1369529  1809671  1369529  1369529  1709671  1439541 
deadline    :  1579625  1919585  1359615  1819585  1359615  1359615  1719585  1429627 
deadline    :  1569630  1929580  1349620  1829580  1349620  1349620  1729580  1419632 
deadline    :  1559616  1939594  1339606  1839594  1339606  1339606  1739594  1409618 
deadline    :  1551279  1947931  1331269  1847931  1331269  2047931  1747931  1401281 
deadline    :  1549627  1949583  1329617  1849583  1329617  2049583  1749583  1399629 
deadline    :  1546772  1952438  1326762  1852438  2052438  2052438  1752438  1396774 
deadline    :  1544971  1954239  2054239  1854239  2054239  2054239  1754239  1394973 
deadline    :  1539628  1959582  2059582  1859582  2059582  2059582  1759582  1389630 
deadline    :  1538762  1960448  2060448  1860448  2060448  2060448  1760448  1610448 
deadline    :  1529557  1969653  2069653  1869653  2069653  2069653  1769653  1619653 
deadline    :  1700217  1939089  2100217  1900217  2100217  2100217  1739089  1589089 
deadline    :  1709606  1929700  2109606  1909606  2109606  2109606  1729700  1579700 
deadline    :  1712744  1926562  2112744  1912744  2112744  2112744  1726562  1662744 
deadline    :  1719612  1919694  2119612  1919612  2119612  2119612  1719694  1669612 
deadline    :  1729626  1909680  2129626  1929626  2129626  2129626  1709680  1679626 
deadline    :  1739604  1899702  2139604  1939604  2139604  2139604  1699702  1689604 
deadline    :  1749604  1889702  2149604  1949604  2149604  2149604  1689702  1699604 
deadline    :  1759603  1879703  2159603  1959603  2159603  2159603  1679703  1709603 
deadline    :  1769606  1869700  2169606  1969606  2169606  2169606  1669700  1719606 
deadline    :  1779601  1859705  2179601  1979601  2179601  2179601  1659705  1729601 
deadline    :  1788061  1851245  2188061  1988061  2188061  2188061  1888061  1738061 
deadline    :  1789604  1849702  2189604  1989604  2189604  2189604  1889604  1739604 
deadline    :  1799601  1839705  2199601  1999601  2199601  2199601  1899601  1749601 
deadline    :  1789516  1829620  2209686  1989516  2209686  2209686  1909686  1759686 
deadline    :  1779600  1819704  2219602  1979600  2219602  2219602  1919602  1769602 
deadline    :  1822153  1817153  2222153  1977049  2222153  2222153  1922153  1772153 
deadline    :  1829602  1809704  2229602  1969600  2229602  2229602  1929602  1779602 
deadline    :  1836831  2136831  2236831  1962371  2236831  2236831  1936831  1786831 
deadline    :  1839603  2139603  2239603  1959599  2239603  2239603  1939603  1789603 
deadline    :  1849601  2149601  2249601  1949601  2249601  2249601  1949601  1799601 
deadline    :  1859643  2159643  2259643  1939559  2259643  2259643  1959643  1789559 
deadline    :  1869602  2169602  2269602  1929600  2269602  2269602  1969602  1779600 
deadline    :  1872106  2172106  2272106  1927096  2272106  2272106  1972106  1822106 
deadline    :  1879602  2179602  2279602  1919600  2279602  2279602  1979602  1829602 
deadline    :  1889601  2189601  2289601  1909601  2289601  2289601  1989601  1839601 
deadline    :  1778794  2300408  2178794  2200408  2178794  2178794  1878794  1728794 
deadline    :  1771036  2308166  2171036  2208166  2171036  2171036  1871036  1958166 
deadline    :  1769613  2309589  2169613  2209589  2169613  2169613  1869613  1959589 
deadline    :  2013512  2313512  2165690  2213512  2165690  2165690  1865690  1963512 
deadline    :  2019609  2319609  2159593  2219609  2159593  2159593  1859593  1969609 
deadline    :  2029602  2329602  2149600  2229602  2149600  2149600  1849600  1979602 
deadline    :  2039590  2339590  2139612  2239590  2139612  2139612  1839612  1989590 
deadline    :  2049579  2349579  2129623  2249579  2129623  2129623  1829623  1999579 
deadline    :  2059578  2359578  2119624  2259578  2119624  2119624  1819624  2009578 
deadline    :  2061200  2361200  2118002  2261200  2118002  2118002  2161200  2011200 
deadline    :  2069650  2369650  2109552  2269650  2109552  2109552  2169650  2019650 
deadline    :  2079602  2379602  2099600  2279602  2099600  2099600  2179602  2029602 
deadline    :  2089602  2389602  2089600  2289602  2089600  2089600  2189602  2039602 
deadline    :  2099599  2399599  2079603  2299599  2079603  2079603  2199599  2049599 
deadline    :  2109599  2409599  2069603  2309599  2069603  2069603  2209599  2059599 
deadline    :  2119603  2419603  2059599  2319603  2059599  2059599  2219603  2069603 
deadline    :  2129598  2429598  2049604  2329598  2049604  2049604  2229598  2079598 
deadline    :  2139598  2439598  2039604  2339598  2039604  2039604  2239598  2089598 
deadline    :  2149602  2449602  2029600  2349602  2029600  2029600  2249602  2099602 
deadline    :  2159685  2459685  2019517  2359685  2019517  2019517  2259685  2089519 
deadline    :  2169600  2469600  2009602  2369600  2009602  2009602  2269600  2079604 
deadline    :  2179604  2479604  1999598  2379604  1999598  1999598  2279604  2069600 
deadline    :  2189598  2489598  1989604  2389598  1989604  1989604  2289598  2059606 
deadline    :  2199598  2499598  1979604  2399598  1979604  1979604  2299598  2049606 
deadline    :  2189398  2489398  1969404  2389398  1969404  1969404  2309798  2039406 
deadline    :  2179609  2479609  1959615  2379609  1959615  1959615  2319587  2029617 
deadline    :  2170908  2470908  1950914  2370908  1950914  2628288  2328288  2020916 
deadline    :  2169611  2469611  1949617  2369611  1949617  2629585  2329585  2019619 
deadline    :  2164501  2464501  2634695  2364501  1944507  2634695  2334695  2014509 
deadline    :  2160743  2460743  2638453  2360743  2638453  2638453  2338453  2010751 
deadline    :  2159611  2459611  2639585  2359611  2639585  2639585  2339585  2009619 
deadline    :  2154501  2454501  2644695  2354501  2644695  2644695  2344695  2194695 
deadline    :  2149543  2449543  2649653  2349543  2649653  2649653  2349653  2199653 
deadline    :  2258646  2440550  2658646  2340550  2658646  2658646  2358646  2208646 
deadline    :  2259609  2439587  2659609  2339587  2659609  2659609  2359609  2209609 
deadline    :  2269603  2429593  2669603  2329593  2669603  2669603  2369603  2219603 
deadline    :  2279601  2419595  2679601  2319595  2679601  2679601  2379601  2229601 
deadline    :  2289601  2409595  2689601  2309595  2689601  2689601  2389601  2239601 
deadline    :  2299601  2399595  2699601  2299595  2699601  2699601  2399601  2249601 
deadline    :  2306772  2392424  2706772  2506772  2706772  2706772  2392430  2242430 
deadline    :  2309603  2389593  2709603  2509603  2709603  2709603  2389599  2239599 
deadline    :  2319346  2379850  2719346  2519346  2719346  2719346  2379856  2269346 
deadline    :  2329603  2369593  2729603  2529603  2729603  2729603  2369599  2279603 
deadline    :  2339613  2359583  2739613  2539613  2739613  2739613  2359589  2289613 
deadline    :  2349602  2349594  2749602  2549602  2749602  2749602  2349600  2299602 
deadline    :  2359603  2339593  2759603  2559603  2759603  2759603  2339599  2309603 
deadline    :  2369602  2329594  2769602  2569602  2769602  2769602  2329600  2319602 
deadline    :  2379601  2319595  2779601  2579601  2779601  2779601  2319601  2329601 
deadline    :  2389602  2309594  2789602  2589602  2789602  2789602  2309600  2339602 
deadline    :  2399603  2299593  2799603  2599603  2799603  2799603  2299599  2349603 
deadline    :  2389555  2289545  2809651  2609651  2809651  2809651  2289551  2359651 
deadline    :  2383483  2715723  2815723  2615723  2815723  2815723  2283479  2365723 
deadline    :  2379602  2719604  2819604  2619604  2819604  2819604  2279598  2369604 
deadline    :  2369603  2729603  2829603  2629603  2829603  2829603  2269599  2379603 
deadline    :  2367631  2731575  2831575  2631575  2831575  2831575  2531575  2381575 
deadline    :  2359602  2739604  2839604  2639604  2839604  2839604  2539604  2389604 
deadline    :  2450152  2750152  2850152  2650152  2850152  2850152  2550152  2379056 
deadline    :  2459649  2759649  2859649  2659649  2859649  2859649  2559649  2369559 
deadline    :  2318761  2900537  2718761  2518761  2718761  2718761  2418761  2228671 
deadline    :  2607507  2907507  2711791  2511791  2711791  2711791  2411791  2221701 
deadline    :  2609594  2909594  2709704  2509704  2709704  2709704  2409704  2219614 
deadline    :  2613793  2913793  2705505  2505505  2705505  2705505  2405505  2563793 
deadline    :  2619583  2919583  2699715  2499715  2699715  2699715  2399715  2569583 
deadline    :  2629580  2929580  2689718  2489718  2689718  2689718  2389718  2579580 
deadline    :  2639580  2939580  2679718  2479718  2679718  2679718  2379718  2589580 
deadline    :  2649580  2949580  2669718  2469718  2669718  2669718  2369718  2599580 
deadline    :  2651006  2951006  2668292  2468292  2668292  2668292  2751006  2601006 
deadline    :  2659580  2959580  2659718  2459718  2659718  2659718  2759580  2609580 
deadline    :  2669579  2969579  2649719  2449719  2649719  2649719  2769579  2619579 
deadline    :  2674359  2974359  2644939  2874359  2644939  2644939  2774359  2624359 
deadline    :  2679617  2979617  2639681  2879617  2639681  2639681  2779617  2629617 
deadline    :  2689606  2989606  2629692  2889606  2629692  2629692  2789606  2639606 
deadline    :  2699601  2999601  2619697  2899601  2619697  2619697  2799601  2649601 
deadline    :  2709674  2989528  2609624  2909674  2609624  2609624  2809674  2659674 
deadline    :  2719606  2979596  2599692  2919606  2599692  2599692  2819606  2669606 
deadline    :  2729625  2969577  2589673  2929625  2589673  2589673  2829625  2679625 
deadline    :  2739607  2959595  2579691  2939607  2579691  2579691  2839607  2689607 
deadline    :  2749602  2949600  2569696  2949602  2569696  2569696  2849602  2699602 
deadline    :  2759666  2939536  2559632  2959666  2559632  2559632  2859666  2689538 
deadline    :  2769608  2929594  2549690  2969608  2549690  2549690  2869608  2679596 
deadline    :  2779600  2919602  2539698  2979600  2539698  2539698  2879600  2669604 
deadline    :  2789580  2909622  2529718  2989580  2529718  2529718  2889580  2659624 
deadline    :  2799578  2899624  2519720  2999578  2519720  2519720  2899578  2649626 
deadline    :  2789514  2889560  2509656  3009642  2509656  2509656  2909642  2639562 
deadline    :  2780606  2880652  2500748  3018550  2500748  3218550  2918550  2630654 
deadline    :  2779572  2879618  2499714  3019584  2499714  3219584  2919584  2629620 
deadline    :  2774346  2874392  2494488  3024810  3224810  3224810  2924810  2624394 
deadline    :  2772943  2872989  3226213  3026213  3226213  3226213  2926213  2622991 
deadline    :  2769576  2869622  3229580  3029580  3229580  3229580  2929580  2619624 
deadline    :  2766634  2866680  3232522  3032522  3232522  3232522  2932522  2782522 
deadline    :  2759510  2859556  3239646  3039646  3239646  3239646  2939646  2789646 
deadline    :  2846554  2852648  3246554  3046554  3246554  3246554  2946554  2796554 
deadline    :  2849606  2849596  3249606  3049606  3249606  3249606  2949606  2799606 
deadline    :  2859602  2839600  3259602  3059602  3259602  3259602  2959602  2809602 
deadline    :  2869602  2829600  3269602  3069602  3269602  3269602  2969602  2819602 
deadline    :  2879601  2819601  3279601  3079601  3279601  3279601  2979601  2829601 
deadline    :  2900214  3200214  3300214  3100214  3300214  3300214  2958988  2808988 
deadline    :  2909630  3209630  3309630  3109630  3309630  3309630  2949572  2799572 
deadline    :  2913073  3213073  3313073  3113073  3313073  3313073  2946129  2863073 
deadline    :  2919606  3219606  3319606  3119606  3319606  3319606  2939596  2869606 
deadline    :  2929602  3229602  3329602  3129602  3329602  3329602  2929600  2879602 
deadline    :  2939602  3239602  3339602  3139602  3339602  3339602  2919600  2889602 
deadline    :  2949602  3249602  3349602  3149602  3349602  3349602  2909600  2899602 
deadline    :  2959602  3259602  3359602  3159602  3359602  3359602  2899600  2909602 
deadline    :  2969602  3269602  3369602  3169602  3369602  3369602  2889600  2919602 
deadline    :  2979605  3279605  3379605  3179605  3379605  3379605  2879597  2929605 
deadline    :  2959021  3300189  3400189  3159021  3400189  3400189  3100189  2950189 
deadline    :  2949594  3309616  3409616  3149594  3409616  3409616  3109616  2959616 
deadline    :  3013040  3313040  3413040  3146170  3413040  3413040  3113040  2963040 
deadline    :  3019600  3319600  3419600  3139610  3419600  3419600  3119600  2969600 
deadline    :  3029600  3329600  3429600  3129610  3429600  3429600  3129600  2979600 
deadline    :  3039599  3339599  3439599  3119611  3439599  3439599  3139599  2989599 
deadline    :  3049599  3349599  3449599  3109611  3449599  3449599  3149599  2999599 
deadline    :  3059643  3359643  3459643  3099567  3459643  3459643  3159643  2989555 
deadline    :  3069600  3369600  3469600  3089610  3469600  3469600  3169600  2979598 
deadline    :  3072334  3372334  3472334  3086876  3472334  3472334  3172334  3022334 
deadline    :  2944167  3244167  3344167  3400501  3344167  3344167  3044167  2894167 
deadline    :  2936282  3236282  3336282  3408386  3336282  3336282  3036282  3158386 
deadline    :  2935080  3235080  3335080  3409588  3335080  3335080  3035080  3159588 
deadline    :  3214300  3230368  3330368  3414300  3330368  3330368  3030368  3164300 
deadline    :  3219583  3225085  3325085  3419583  3325085  3325085  3025085  3169583 
deadline    :  3229583  3215085  3315085  3429583  3315085  3315085  3015085  3179583 
deadline    :  3239580  3205088  3305088  3439580  3305088  3305088  3005088  3189580 
deadline    :  3249580  3195088  3295088  3449580  3295088  3295088  2995088  3199580 
deadline    :  3251675  3192993  3292993  3451675  3292993  3292993  3351675  3201675 
deadline    :  3259611  3185057  3285057  3459611  3285057  3285057  3359611  3209611 
deadline    :  3269600  3175068  3275068  3469600  3275068  3275068  3369600  3219600 
deadline    :  3279598  3165070  3265070  3479598  3265070  3265070  3379598  3229598 
deadline    :  3288562  3588562  3256106  3488562  3256106  3256106  3388562  3238562 
deadline    :  3289600  3589600  3255068  3489600  3255068  3255068  3389600  3239600 
deadline    :  3299610  3599610  3245058  3499610  3245058  3245058  3399610  3249610 
deadline    :  3309601  3609601  3235067  3509601  3235067  3235067  3409601  3259601 
deadline    :  3319599  3619599  3225069  3519599  3225069  3225069  3419599  3269599 
deadline    :  3329602  3629602  3215066  3529602  3215066  3215066  3429602  3279602 
deadline    :  3339600  3639600  3205068  3539600  3205068  3205068  3439600  3289600 
deadline    :  3349598  3649598  3195070  3549598  3195070  3195070  3449598  3299598 
deadline    :  3359687  3659687  3184981  3559687  3184981  3184981  3459687  3289509 
deadline    :  3369602  3669602  3175066  3569602  3175066  3175066  3469602  3279594 
deadline    :  3379600  3679600  3165068  3579600  3165068  3165068  3479600  3269596 
deadline    :  3389597  3689597  3155071  3589597  3155071  3155071  3489597  3259599 
deadline    :  3399583  3699583  3145085  3599583  3145085  3145085  3499583  3249613 
deadline    :  3389523  3709643  3135025  3589523  3135025  3135025  3509643  3239553 
deadline    :  3379570  3719596  3125072  3579570  3125072  3125072  3519596  3229600 
deadline    :  3370469  3728697  3115971  3570469  3115971  3828697  3528697  3220499 
deadline    :  3369581  3729585  3115083  3569581  3115083  3829585  3529585  3219611 
deadline    :  3366532  3732634  3832634  3566532  3112034  3832634  3532634  3216562 
deadline    :  3361940  3737226  3837226  3561940  3837226  3837226  3537226  3211970 
deadline    :  3359582  3739584  3839584  3559582  3839584  3839584  3539584  3209612 
deadline    :  3355600  3743566  3843566  3555600  3843566  3843566  3543566  3393566 
deadline    :  3349533  3749633  3849633  3549533  3849633  3849633  3549633  3399633 
deadline    :  3456797  3756797  3856797  3542369  3856797  3856797  3556797  3406797 
deadline    :  3459603  3759603  3859603  3539563  3859603  3859603  3559603  3409603 
deadline    :  3469600  3769600  3869600  3529566  3869600  3869600  3569600  3419600 
deadline    :  3479604  3779604  3879604  3519562  3879604  3879604  3579604  3429604 
deadline    :  3489600  3789600  3889600  3509566  3889600  3889600  3589600  3439600 
deadline    :  3499609  3799609  3899609  3499557  3899609  3899609  3599609  3449609 
deadline    :  3506094  3806094  3906094  3706094  3906094  3906094  3593124  3443124 
deadline    :  3509602  3809602  3909602  3709602  3909602  3909602  3589616  3439616 
deadline    :  3518899  3818899  3918899  3718899  3918899  3918899  3580319  3468899 
deadline    :  3519602  3819602  3919602  3719602  3919602  3919602  3579616  3469602 
deadline    :  3529602  3829602  3929602  3729602  3929602  3929602  3569616  3479602 
deadline    :  3539600  3839600  3939600  3739600  3939600  3939600  3559618  3489600 
deadline    :  3549600  3849600  3949600  3749600  3949600  3949600  3549618  3499600 
deadline    :  3559600  3859600  3959600  3759600  3959600  3959600  3539618  3509600 
deadline    :  3569601  3869601  3969601  3769601  3969601  3969601  3529617  3519601 
deadline    :  3579600  3879600  3979600  3779600  3979600  3979600  3519618  3529600 
deadline    :  3589600  3889600  3989600  3789600  3989600  3989600  3509618  3539600 
deadline    :  3579037  3900163  4000163  3800163  4000163  4000163  3700163  3550163 
deadline    :  3569550  3909650  4009650  3809650  4009650  4009650  3709650  3559650 
deadline    :  3650183  3950183  4050183  3850183  4050183  4050183  3750183  3519117 
deadline    :  3659606  3959606  4059606  3859606  4059606  4059606  3759606  3509694 
deadline    :  3700091  3919121  4100091  3900091  4100091  4100091  3800091  3650091 
deadline    :  3709602  3909610  4109602  3909602  4109602  4109602  3809602  3659602 
deadline    :  3719599  3899613  4119599  3919599  4119599  4119599  3819599  3669599 
deadline    :  3729621  3889591  4129621  3929621  4129621  4129621  3829621  3679621 
deadline    :  3658745  4100497  4058745  3858745  4058745  4058745  3758745  3608745 
deadline    :  3650810  4108432  4050810  3850810  4050810  4050810  3750810  3758432 
deadline    :  3639635  4119607  4039635  3839635  4039635  4039635  3739635  3769607 
deadline    :  3820703  4120703  4038539  3838539  4038539  4038539  3738539  3770703 
deadline    :  3829603  4129603  4029639  3829639  4029639  4029639  3729639  3779603 
deadline    :  3839600  4139600  4019642  3819642  4019642  4019642  3719642  3789600 
deadline    :  3849600  4149600  4009642  3809642  4009642  4009642  3709642  3799600 
deadline    :  3859599  4159599  3999643  3799643  3999643  3999643  3699643  3809599 
deadline    :  3869599  4169599  3989643  3789643  3989643  3989643  3689643  3819599 
deadline    :  3879598  4179598  3979644  3779644  3979644  3979644  3679644  3829598 
deadline    :  3889599  4189599  3969643  3769643  3969643  3969643  3669643  3839599 
deadline    :  3897537  4197537  3961705  3761705  3961705  3961705  3997537  3847537 
deadline    :  3899599  4199599  3959643  3759643  3959643  3959643  3999599  3849599 
deadline    :  3909599  4209599  3949643  3749643  3949643  3949643  4009599  3859599 
deadline    :  3919599  4219599  3939643  3739643  3939643  3939643  4019599  3869599 
deadline    :  3929599  4229599  3929643  3729643  3929643  3929643  4029599  3879599 
deadline    :  3939599  4239599  3919643  3719643  3919643  3919643  4039599  3889599 
deadline    :  3944634  4244634  3914608  4144634  3914608  3914608  4044634  3894634 
deadline    :  3949665  4249665  3909577  4149665  3909577  3909577  4049665  3899665 
deadline    :  3959707  4259707  3899535  4159707  3899535  3899535  4059707  3889623 
deadline    :  3969603  4269603  3889639  4169603  3889639  3889639  4069603  3879727 
deadline    :  3972625  4272625  3886617  4172625  3886617  3886617  4072625  3922625 
deadline    :  3979607  4279607  3879635  4179607  3879635  3879635  4079607  3929607 
deadline    :  3989601  4289601  3869641  4189601  3869641  3869641  4089601  3939601 
deadline    :  3999606  4299606  3859636  4199606  3859636  3859636  4099606  3949606 
deadline    :  3989549  4309663  3849579  4209663  3849579  3849579  4109663  3959663 
deadline    :  3979611  4319601  3839641  4219601  3839641  3839641  4119601  3969601 
deadline    :  3969588  4329624  3829618  4229624  3829618  3829618  4129624  3979624 
deadline    :  3959629  4339583  3819659  4239583  3819659  3819659  4139583  3989583 
deadline    :  3949633  4349579  3809663  4249579  3809663  3809663  4149579  3999579 
deadline    :  3939633  4359579  3799663  4259579  3799663  3799663  4159579  4009579 
deadline    :  3929616  4369596  3789646  4269596  3789646  3789646  4169596  4019596 
deadline    :  3919632  4379580  3779662  4279580  3779662  3779662  4179580  4029580 
deadline    :  3913966  4385246  3773996  4285246  3773996  4485246  4185246  4035246 
deadline    :  3909621  4389591  3769651  4289591  3769651  4489591  4189591  4039591 
deadline    :  3905930  4393282  4493282  4293282  3765960  4493282  4193282  4043282 
deadline    :  3901919  4397293  4497293  4297293  4497293  4497293  4197293  4047293 
deadline    :  3899623  4399589  4499589  4299589  4499589  4499589  4199589  4049589 
deadline    :  4103793  4403793  4503793  4303793  4503793  4503793  4195385  4045385 
deadline    :  4109650  4409650  4509650  4309650  4509650  4509650  4189528  4039528 
deadline    :  4117957  4417957  4517957  4317957  4517957  4517957  4181221  4067957 
deadline    :  4119607  4419607  4519607  4319607  4519607  4519607  4179571  4069607 
deadline    :  4129601  4429601  4529601  4329601  4529601  4529601  4169577  4079601 
deadline    :  4139602  4439602  4539602  4339602  4539602  4539602  4159576  4089602 
deadline    :  4149602  4449602  4549602  4349602  4549602  4549602  4149576  4099602 
deadline    :  4159602  4459602  4559602  4359602  4559602  4559602  4139576  4109602 
deadline    :  4169601  4469601  4569601  4369601  4569601  4569601  4129577  4119601 
deadline    :  4179602  4479602  4579602  4379602  4579602  4579602  4119576  4129602 
deadline    :  4189601  4489601  4589601  4389601  4589601  4589601  4109577  4139601 
deadline    :  4178987  4478987  4600215  4378987  4600215  4600215  4300215  4150215 
deadline    :  4169573  4469573  4609629  4369573  4609629  4609629  4309629  4159629 
deadline    :  4213223  4465979  4613223  4365979  4613223  4613223  4313223  4163223 
deadline    :  4219606  4459596  4619606  4359596  4619606  4619606  4319606  4169606 
deadline    :  4229606  4449596  4629606  4349596  4629606  4629606  4329606  4179606 
deadline    :  4239602  4439600  4639602  4339600  4639602  4639602  4339602  4189602 
deadline    :  4249601  4429601  4649601  4329601  4649601  4649601  4349601  4199601 
deadline    :  4259642  4419560  4659642  4319560  4659642  4659642  4359642  4189560 
deadline    :  4269602  4409600  4669602  4309600  4669602  4669602  4369602  4179600 
deadline    :  4272562  4406640  4672562  4306640  4672562  4672562  4372562  4222562 
deadline    :  4275230  4403972  4675230  4475230  4675230  4675230  4375230  4225230 
deadline    :  4279605  4399597  4679605  4479605  4679605  4679605  4379605  4229605 
deadline    :  4289602  4389600  4689602  4489602  4689602  4689602  4389602  4239602 
deadline    :  4299602  4379600  4699602  4499602  4699602  4699602  4399602  4249602 
deadline    :  4309601  4369601  4709601  4509601  4709601  4709601  4409601  4259601 
deadline    :  4218769  4700433  4618769  4600433  4618769  4618769  4318769  4168769 
deadline    :  4210764  4708438  4610764  4608438  4610764  4610764  4310764  4358438 
deadline    :  4209612  4709590  4609612  4609590  4609612  4609612  4309612  4359590 
deadline    :  4413999  4713999  4605203  4613999  4605203  4605203  4305203  4363999 
deadline    :  4419613  4719613  4599589  4619613  4599589  4599589  4299589  4369613 
deadline    :  4429603  4729603  4589599  4629603  4589599  4589599  4289599  4379603 
deadline    :  4439601  4739601  4579601  4639601  4579601  4579601  4279601  4389601 
deadline    :  4449601  4749601  4569601  4649601  4569601  4569601  4269601  4399601 
deadline    :  4459601  4759601  4559601  4659601  4559601  4559601  4259601  4409601 
deadline    :  4469601  4769601  4549601  4669601  4549601  4549601  4249601  4419601 
deadline    :  4479594  4779594  4539608  4679594  4539608  4539608  4239608  4429594 
deadline    :  4482709  4782709  4536493  4682709  4536493  4536493  4582709  4432709 
deadline    :  4489629  4789629  4529573  4689629  4529573  4529573  4589629  4439629 
deadline    :  4499606  4799606  4519596  4699606  4519596  4519596  4599606  4449606 
deadline    :  4509602  4809602  4509600  4709602  4509600  4509600  4609602  4459602 
deadline    :  4519601  4819601  4499601  4719601  4499601  4499601  4619601  4469601 
deadline    :  4529602  4829602  4489600  4729602  4489600  4489600  4629602  4479602 
deadline    :  4539600  4839600  4479602  4739600  4479602  4479602  4639600  4489600 
deadline    :  4549600  4849600  4469602  4749600  4469602  4469602  4649600  4499600 
deadline    :  4559684  4859684  4459518  4759684  4459518  4459518  4659684  4489516 
deadline    :  4569602  4869602  4449600  4769602  4449600  4449600  4669602  4479598 
deadline    :  4579600  4879600  4439602  4779600  4439602  4439602  4679600  4469600 
deadline    :  4589613  4889613  4429589  4789613  4429589  4429589  4689613  4459587 
deadline    :  4599604  4899604  4419598  4799604  4419598  4419598  4699604  4449596 
deadline    :  4589506  4909702  4409500  4789506  4409500  4409500  4709702  4439498 
deadline    :  4579607  4919601  4399601  4779607  4399601  4399601  4719601  4429599 
deadline    :  4578057  4921151  4398051  4778057  4398051  4398051  4721151  4571151 
deadline    :  4569603  4929605  4389597  4769603  4389597  4389597  4729605  4579605 
deadline    :  4559628  4939580  4379622  4759628  4379622  4379622  4739580  4589580 
deadline    :  4549629  4949579  4369623  4749629  4369623  4369623  4749579  4599579 
deadline    :  4542443  4956765  5056765  4742443  4362437  4362437  4756765  4606765 
deadline    :  4539616  4959592  5059592  4739616  4359610  4359610  4759592  4609592 
deadline    :  4538662  4960546  5060546  4738662  5060546  4358656  4760546  4610546 
deadline    :  4537413  4961795  5061795  4737413  5061795  5061795  4761795  4611795 
deadline    :  4529570  4969638  5069638  4729570  5069638  5069638  4769638  4619638 
deadline    :  4676009  4976009  5076009  4723199  5076009  5076009  4776009  4626009 
deadline    :  4679608  4979608  5079608  4719600  5079608  5079608  4779608  4629608 
deadline    :  4689602  4989602  5089602  4709606  5089602  5089602  4789602  4639602 
deadline    :  4699602  4999602  5099602  4699606  5099602  5099602  4799602  4649602 
deadline    :  4709747  4989457  5109747  4689461  5109747  5109747  4789457  4639457 
deadline    :  4719603  4979601  5119603  4679605  5119603  5119603  4779601  4629601 
deadline    :  4722729  4976475  5122729  4676479  5122729  5122729  4776475  4672729 
deadline    :  4729625  4969579  5129625  4669583  5129625  5129625  4769579  4679625 
deadline    :  4738669  4960535  5138669  4938669  5138669  5138669  4760535  4688669 
deadline    :  4739603  4959601  5139603  4939603  5139603  5139603  4759601  4689603 
deadline    :  4749602  4949602  5149602  4949602  5149602  5149602  4749602  4699602 
deadline    :  4759602  4939602  5159602  4959602  5159602  5159602  4739602  4709602 
deadline    :  4769604  4929600  5169604  4969604  5169604  5169604  4729600  4719604 
deadline    :  4779602  4919602  5179602  4979602  5179602  5179602  4719602  4729602 
deadline    :  4789602  4909602  5189602  4989602  5189602  5189602  4709602  4739602 
deadline    :  4799601  4899603  5199601  4999601  5199601  5199601  4699603  4749601 
deadline    :  4789554  4889556  5209648  5009648  5209648  5209648  4689556  4759648 
deadline    :  4782323  4882325  5216879  5016879  5216879  5216879  4916879  4766879 
deadline    :  4779599  4879601  5219603  5019603  5219603  5219603  4919603  4769603 
deadline    :  4769601  4869603  5229601  5029601  5229601  5229601  4929601  4779601 
deadline    :  4830451  4868753  5230451  5030451  5230451  5230451  4930451  4780451 
deadline    :  4839604  4859600  5239604  5039604  5239604  5239604  4939604  4789604 
deadline    :  4849601  4849603  5249601  5049601  5249601  5249601  4949601  4799601 
deadline    :  4859646  4839558  5259646  5059646  5259646  5259646  4959646  4789556 
deadline    :  4869601  4829603  5269601  5069601  5269601  5269601  4969601  4779601 
deadline    :  4872686  4826518  5272686  5072686  5272686  5272686  4972686  4822686 
deadline    :  4879602  4819602  5279602  5079602  5279602  5279602  4979602  4829602 
deadline    :  4758705  5300499  5158705  4958705  5158705  5158705  4858705  4708705 
deadline    :  4750657  5308547  5150657  4950657  5150657  5150657  4850657  4958547 
deadline    :  4749615  5309589  5149615  4949615  5149615  5149615  4849615  4959589 
deadline    :  5014183  5314183  5145021  4945021  5145021  5145021  4845021  4964183 
deadline    :  5019583  5319583  5139621  4939621  5139621  5139621  4839621  4969583 
deadline    :  5029581  5329581  5129623  4929623  5129623  5129623  4829623  4979581 
deadline    :  5039580  5339580  5119624  4919624  5119624  5119624  4819624  4989580 
deadline    :  5049580  5349580  5109624  4909624  5109624  5109624  4809624  4999580 
deadline    :  5052020  5352020  5107184  4907184  5107184  5107184  5152020  5002020 
deadline    :  5059610  5359610  5099594  4899594  5099594  5099594  5159610  5009610 
deadline    :  5069600  5369600  5089604  4889604  5089604  5089604  5169600  5019600 
deadline    :  5079599  5379599  5079605  4879605  5079605  5079605  5179599  5029599 
deadline    :  5089599  5389599  5069605  4869605  5069605  5069605  5189599  5039599 
deadline    :  5098420  5398420  5060784  5298420  5060784  5060784  5198420  5048420 
deadline    :  5109657  5409657  5049547  5309657  5049547  5049547  5209657  5059657 
deadline    :  5119607  5419607  5039597  5319607  5039597  5039597  5219607  5069607 
deadline    :  5129602  5429602  5029602  5329602  5029602  5029602  5229602  5079602 
deadline    :  5139605  5439605  5019599  5339605  5019599  5019599  5239605  5089605 
deadline    :  5149602  5449602  5009602  5349602  5009602  5009602  5249602  5099602 
deadline    :  5159688  5459688  4999516  5359688  4999516  4999516  5259688  5089516 
deadline    :  5169609  5469609  4989595  5369609  4989595  4989595  5269609  5079595 
deadline    :  5179603  5479603  4979601  5379603  4979601  4979601  5279603  5069601 
deadline    :  5189595  5489595  4969609  5389595  4969609  4969609  5289595  5059609 
deadline    :  5199599  5499599  4959605  5399599  4959605  4959605  5299599  5049605 
deadline    :  5189544  5489544  4949550  5409654  4949550  4949550  5309654  5039550 
deadline    :  5179619  5479619  4939625  5419579  4939625  4939625  5319579  5029625 
deadline    :  5169600  5469600  4929606  5429598  4929606  4929606  5329598  5019606 
deadline    :  5160078  5460078  4920084  5439120  4920084  5639120  5339120  5010084 
deadline    :  5159615  5459615  4919621  5439583  4919621  5639583  5339583  5009621 
deadline    :  5154527  5454527  4914533  5444671  5644671  5644671  5344671  5004533 
deadline    :  5150562  5450562  5648636  5448636  5648636  5648636  5348636  5000568 
deadline    :  5149614  5449614  5649584  5449584  5649584  5649584  5349584  4999620 
deadline    :  5144015  5444015  5655183  5455183  5655183  5655183  5355183  5205183 
deadline    :  5139578  5439578  5659620  5459620  5659620  5659620  5359620  5209620 
deadline    :  5269530  5429668  5669530  5469530  5669530  5669530  5369530  5219530 
deadline    :  5279602  5419596  5679602  5479602  5679602  5679602  5379602  5229602 
deadline    :  5289600  5409598  5689600  5489600  5689600  5689600  5389600  5239600 
deadline    :  5299601  5399597  5699601  5499601  5699601  5699601  5399601  5249601 
deadline    :  5306899  5606899  5706899  5506899  5706899  5706899  5392303  5242303 
deadline    :  5309603  5609603  5709603  5509603  5709603  5709603  5389599  5239599 
deadline    :  5319600  5619600  5719600  5519600  5719600  5719600  5379602  5229602 
deadline    :  5320651  5620651  5720651  5520651  5720651  5720651  5378551  5270651 
deadline    :  5329603  5629603  5729603  5529603  5729603  5729603  5369599  5279603 
deadline    :  5339601  5639601  5739601  5539601  5739601  5739601  5359601  5289601 
deadline    :  5349600  5649600  5749600  5549600  5749600  5749600  5349602  5299600 
deadline    :  5359600  5659600  5759600  5559600  5759600  5759600  5339602  5309600 
deadline    :  5369600  5669600  5769600  5569600  5769600  5769600  5329602  5319600 
deadline    :  5379600  5679600  5779600  5579600  5779600  5779600  5319602  5329600 
deadline    :  5389600  5689600  5789600  5589600  5789600  5789600  5309602  5339600 
deadline    :  5379064  5700136  5800136  5579064  5800136  5800136  5500136  5350136 
deadline    :  5369568  5709632  5809632  5569568  5809632  5809632  5509632  5359632 
deadline    :  5413356  5713356  5813356  5565844  5813356  5813356  5513356  5363356 
deadline    :  5419606  5719606  5819606  5559594  5819606  5819606  5519606  5369606 
deadline    :  5429604  5729604  5829604  5549596  5829604  5829604  5529604  5379604 
deadline    :  5439603  5739603  5839603  5539597  5839603  5839603  5539603  5389603 
deadline    :  5449603  5749603  5849603  5529597  5849603  5849603  5549603  5399603 
deadline    :  5459645  5759645  5859645  5519555  5859645  5859645  5559645  5389561 
deadline    :  5469604  5769604  5869604  5509596  5869604  5869604  5569604  5379602 
deadline    :  5472798  5772798  5872798  5506402  5872798  5872798  5572798  5422798 
deadline    :  5345166  5900430  5745166  5800430  5745166  5745166  5445166  5295166 
deadline    :  5337020  5908576  5737020  5808576  5737020  5737020  5437020  5558576 
deadline    :  5336001  5909595  5736001  5809595  5736001  5736001  5436001  5559595 
deadline    :  5614282  5914282  5731314  5814282  5731314  5731314  5431314  5564282 
deadline    :  5619584  5919584  5726012  5819584  5726012  5726012  5426012  5569584 
deadline    :  5629581  5929581  5716015  5829581  5716015  5716015  5416015  5579581 
deadline    :  5639580  5939580  5706016  5839580  5706016  5706016  5406016  5589580 
deadline    :  5649580  5949580  5696016  5849580  5696016  5696016  5396016  5599580 
deadline    :  5652236  5952236  5693360  5852236  5693360  5693360  5752236  5602236 
deadline    :  5659627  5959627  5685969  5859627  5685969  5685969  5759627  5609627 
deadline    :  5669610  5969610  5675986  5869610  5675986  5675986  5769610  5619610 
deadline    :  5679600  5979600  5665996  5879600  5665996  5665996  5779600  5629600 
deadline    :  5689600  5989600  5655996  5889600  5655996  5655996  5789600  5639600 
deadline    :  5699604  5999604  5645992  5899604  5645992  5645992  5799604  5649604 
deadline    :  5709684  5989524  5635912  5909684  5635912  5635912  5809684  5659684 
deadline    :  5719600  5979608  5625996  5919600  5625996  5625996  5819600  5669600 
deadline    :  5729630  5969578  5615966  5929630  5615966  5615966  5829630  5679630 
deadline    :  5739607  5959601  5605989  5939607  5605989  5605989  5839607  5689607 
deadline    :  5749598  5949610  5595998  5949598  5595998  5595998  5849598  5699598 
deadline    :  5759677  5939531  5585919  5959677  5585919  5585919  5859677  5689519 
deadline    :  5769603  5929605  5575993  5969603  5575993  5575993  5869603  5679593 
deadline    :  5779608  5919600  5565988  5979608  5565988  5565988  5879608  5669588 
deadline    :  5789610  5909598  5555986  5989610  5555986  5555986  5889610  5659586 
deadline    :  5799583  5899625  5546013  5999583  5546013  5546013  5899583  5649613 
deadline    :  5789443  5889485  5535873  5989443  5535873  5535873  5909723  5639473 
deadline    :  5782907  5882949  6216259  5982907  5529337  5529337  5916259  5632937 
deadline    :  5779567  5879609  6219599  5979567  5525997  5525997  5919599  5629597 
deadline    :  5777332  5877374  6221834  5977332  6221834  5523762  5921834  5627362 
deadline    :  5775325  5875367  6223841  5975325  6223841  6223841  5923841  5625355 
deadline    :  5769584  5869626  6229582  5969584  6229582  6229582  5929582  5619614 
deadline    :  5768732  5868774  6230434  5968732  6230434  6230434  5930434  5780434 
deadline    :  5759530  5859572  6239636  5959530  6239636  6239636  5939636  5789636 
deadline    :  5844772  5854436  6244772  5954394  6244772  6244772  5944772  5794772 
deadline    :  5849607  5849601  6249607  5949559  6249607  6249607  5949607  5799607 
deadline    :  5859602  5839606  6259602  5939564  6259602  6259602  5959602  5809602 
deadline    :  5869603  5829605  6269603  5929563  6269603  6269603  5969603  5819603 
deadline    :  5879602  5819606  6279602  5919564  6279602  6279602  5979602  5829602 
deadline    :  5883230  6183230  6283230  5915936  6283230  6283230  5983230  5833230 
deadline    :  5889604  6189604  6289604  5909562  6289604  6289604  5989604  5839604 
deadline    :  5899602  6199602  6299602  5899564  6299602  6299602  5999602  5849602 
deadline    :  5909711  6209711  6309711  5889455  6309711  6309711  5989493  5839493 
deadline    :  5919602  6219602  6319602  5879564  6319602  6319602  5979602  5829602 
deadline    :  5922934  6222934  6322934  5876232  6322934  6322934  5976270  5872934 
deadline    :  5929603  6229603  6329603  5869563  6329603  6329603  5969601  5879603 
deadline    :  5939602  6239602  6339602  5859564  6339602  6339602  5959602  5889602 
deadline    :  5947063  6247063  6347063  6147063  6347063  6347063  5952141  5897063 
deadline    :  5949604  6249604  6349604  6149604  6349604  6349604  5949600  5899604 
deadline    :  5959601  6259601  6359601  6159601  6359601  6359601  5939603  5909601 
deadline    :  5969602  6269602  6369602  6169602  6369602  6369602  5929602  5919602 
deadline    :  5979605  6279605  6379605  6179605  6379605  6379605  5919599  5929605 
deadline    :  5989601  6289601  6389601  6189601  6389601  6389601  5909603  5939601 
deadline    :  5999602  6299602  6399602  6199602  6399602  6399602  5899602  5949602 
deadline    :  5989558  6309646  6409646  6209646  6409646  6409646  5889558  5959646 
deadline    :  5979601  6319603  6419603  6219603  6419603  6419603  5879601  5969603 
deadline    :  5972948  6326256  6426256  6226256  6426256  6426256  6126256  5976256 
deadline    :  5969602  6329602  6429602  6229602  6429602  6429602  6129602  5979602 
deadline    :  6050167  6350167  6450167  6250167  6450167  6450167  6150167  5959037 
deadline    :  6059664  6359664  6459664  6259664  6459664  6459664  6159664  5949540 
deadline    :  5918700  6218700  6318700  6118700  6318700  6318700  6018700  5808576 
deadline    :  6207918  6211410  6311410  6111410  6311410  6311410  6011410  5801286 
deadline    :  6209592  6209736  6309736  6109736  6309736  6309736  6009736  5799612 
deadline    :  6214555  6204773  6304773  6104773  6304773  6304773  6004773  6164555 
deadline    :  6219582  6199746  6299746  6099746  6299746  6299746  5999746  6169582 
deadline    :  6229584  6189744  6289744  6089744  6289744  6289744  5989744  6179584 
deadline    :  6239580  6179748  6279748  6079748  6279748  6279748  5979748  6189580 
deadline    :  6249580  6169748  6269748  6069748  6269748  6269748  5969748  6199580 
deadline    :  6252726  6166602  6266602  6066602  6266602  6266602  6352726  6202726 
deadline    :  6259580  6159748  6259748  6059748  6259748  6259748  6359580  6209580 
deadline    :  6269581  6149747  6249747  6049747  6249747  6249747  6369581  6219581 
deadline    :  6276629  6142699  6242699  6476629  6242699  6242699  6376629  6226629 
deadline    :  6279617  6139711  6239711  6479617  6239711  6239711  6379617  6229617 
deadline    :  6289602  6129726  6229726  6489602  6229726  6229726  6389602  6239602 
deadline    :  6299601  6119727  6219727  6499601  6219727  6219727  6399601  6249601 
deadline    :  6309600  6109728  6209728  6509600  6209728  6209728  6409600  6259600 
deadline    :  6314697  6614697  6204631  6514697  6204631  6204631  6414697  6264697 
deadline    :  6319609  6619609  6199719  6519609  6199719  6199719  6419609  6269609 
deadline    :  6329608  6629608  6189720  6529608  6189720  6189720  6429608  6279608 
deadline    :  6339602  6639602  6179726  6539602  6179726  6179726  6439602  6289602 
deadline    :  6349602  6649602  6169726  6549602  6169726  6169726  6449602  6299602 
deadline    :  6359692  6659692  6159636  6559692  6159636  6159636  6459692  6289512 
deadline    :  6369587  6669587  6149741  6569587  6149741  6149741  6469587  6279617 
deadline    :  6379581  6679581  6139747  6579581  6139747  6139747  6479581  6269623 
deadline    :  6389599  6689599  6129729  6589599  6129729  6129729  6489599  6259605 
deadline    :  6399585  6699585  6119743  6599585  6119743  6119743  6499585  6249619 
deadline    :  6389545  6709625  6109703  6609625  6109703  6109703  6509625  6239579 
deadline    :  6379567  6719603  6099725  6619603  6099725  6099725  6519603  6229601 
deadline    :  6370013  6729157  6090171  6629157  6090171  6829157  6529157  6220047 
deadline    :  6369582  6729588  6089740  6629588  6089740  6829588  6529588  6219616 
deadline    :  6360181  6738989  6080339  6638989  6838989  6838989  6538989  6210215 
deadline    :  6359588  6739582  6079746  6639582  6839582  6839582  6539582  6209622 
deadline    :  6355353  6743817  6843817  6643817  6843817  6843817  6543817  6205387 
deadline    :  6349582  6749588  6849588  6649588  6849588  6849588  6549588  6199616 
deadline    :  6348666  6750504  6850504  6650504  6850504  6850504  6550504  6400504 
deadline    :  6339527  6759643  6859643  6659643  6859643  6859643  6559643  6409643 
deadline    :  6500202  6800202  6900202  6700202  6900202  6900202  6519084  6369084 
deadline    :  6509632  6809632  6909632  6709632  6909632  6909632  6509654  6359654 
deadline    :  6513733  6813733  6913733  6713733  6913733  6913733  6505553  6463733 
deadline    :  6519604  6819604  6919604  6719604  6919604  6919604  6499682  6469604 
deadline    :  6529601  6829601  6929601  6729601  6929601  6929601  6489685  6479601 
deadline    :  6539601  6839601  6939601  6739601  6939601  6939601  6479685  6489601 
deadline    :  6549601  6849601  6949601  6749601  6949601  6949601  6469685  6499601 
deadline    :  6559600  6859600  6959600  6759600  6959600  6959600  6459686  6509600 
deadline    :  6569600  6869600  6969600  6769600  6969600  6969600  6449686  6519600 
deadline    :  6579600  6879600  6979600  6779600  6979600  6979600  6439686  6529600 
deadline    :  6589601  6889601  6989601  6789601  6989601  6989601  6429685  6539601 
deadline    :  6579012  6900190  7000190  6779012  7000190  7000190  6700190  6550190 
deadline    :  6569584  6909618  7009618  6769584  7009618  7009618  6709618  6559618 
deadline    :  6613661  6913661  7013661  6765541  7013661  7013661  6713661  6563661 
deadline    :  6619613  6919613  7019613  6759589  7019613  7019613  6719613  6569613 
deadline    :  6629607  6929607  7029607  6749595  7029607  7029607  6729607  6579607 
deadline    :  6639604  6939604  7039604  6739598  7039604  7039604  6739604  6589604 
deadline    :  6649617  6949617  7049617  6729585  7049617  7049617  6749617  6599617 
deadline    :  6659653  6959653  7059653  6719549  7059653  7059653  6759653  6589581 
deadline    :  6669606  6969606  7069606  6709596  7069606  7069606  6769606  6579628 
deadline    :  6673030  6973030  7073030  6706172  7073030  7073030  6773030  6623030 
deadline    :  6700176  6945884  7100176  6900176  7100176  7100176  6800176  6650176 
deadline    :  6709609  6936451  7109609  6909609  7109609  7109609  6809609  6659609 
deadline    :  6719600  6926460  7119600  6919600  7119600  7119600  6819600  6669600 
deadline    :  6729625  6916435  7129625  6929625  7129625  7129625  6829625  6679625 
deadline    :  6658829  7100421  7058829  7000421  7058829  7058829  6758829  6608829 
deadline    :  6650602  7108648  7050602  7008648  7050602  7050602  6750602  6758648 
deadline    :  6639643  7119607  7039643  7019607  7039643  7039643  6739643  6769607 
deadline    :  6821299  7121299  7037951  7021299  7037951  7037951  6737951  6771299 
deadline    :  6829603  7129603  7029647  7029603  7029647  7029647  6729647  6779603 
deadline    :  6839600  7139600  7019650  7039600  7019650  7019650  6719650  6789600 
deadline    :  6849600  7149600  7009650  7049600  7009650  7009650  6709650  6799600 
deadline    :  6859599  7159599  6999651  7059599  6999651  6999651  6699651  6809599 
deadline    :  6869599  7169599  6989651  7069599  6989651  6989651  6689651  6819599 
deadline    :  6879599  7179599  6979651  7079599  6979651  6979651  6679651  6829599 
deadline    :  6889599  7189599  6969651  7089599  6969651  6969651  6669651  6839599 
deadline    :  6899599  7199599  6959651  7099599  6959651  6959651  6659651  6849599 
deadline    :  6902225  7202225  6957025  7102225  6957025  6957025  7002225  6852225 
deadline    :  6909682  7209682  6949568  7109682  6949568  6949568  7009682  6859682 
deadline    :  6919619  7219619  6939631  7119619  6939631  6939631  7019619  6869619 
deadline    :  6929603  7229603  6929647  7129603  6929647  6929647  7029603  6879603 
deadline    :  6939602  7239602  6919648  7139602  6919648  6919648  7039602  6889602 
deadline    :  6949607  7249607  6909643  7149607  6909643  6909643  7049607  6899607 
deadline    :  6959692  7259692  6899558  7159692  6899558  6899558  7059692  6889522 
deadline    :  6969602  7269602  6889648  7169602  6889648  6889648  7069602  6879612 
deadline    :  6973168  7273168  6886082  7173168  6886082  6886082  7073168  6923168 
deadline    :  6979606  7279606  6879644  7179606  6879644  6879644  7079606  6929606 
deadline    :  6989602  7289602  6869648  7189602  6869648  6869648  7089602  6939602 
deadline    :  6999608  7299608  6859642  7199608  6859642  6859642  7099608  6949608 
deadline    :  6989508  7309708  6849542  7189508  6849542  6849542  7109708  6959708 
deadline    :  6979614  7319602  6839648  7179614  6839648  6839648  7119602  6969602 
deadline    :  6969610  7329606  6829644  7169610  6829644  6829644  7129606  6979606 
deadline    :  6959611  7339605  6819645  7159611  6819645  6819645  7139605  6989605 
deadline    :  6949636  7349580  6809670  7149636  6809670  6809670  7149580  6999580 
deadline    :  6939619  7359597  6799653  7139619  6799653  6799653  7159597  7009597 
deadline    :  6929633  7369583  6789667  7129633  6789667  6789667  7169583  7019583 
deadline    :  6922341  7376875  6782375  7122341  7476875  6782375  7176875  7026875 
deadline    :  6919628  7379588  6779662  7119628  7479588  6779662  7179588  7029588 
deadline    :  6918170  7381046  6778204  7118170  7481046  7481046  7181046  7031046 
deadline    :  6913843  7385373  7485373  7113843  7485373  7485373  7185373  7035373 
deadline    :  6909543  7389673  7489673  7109543  7489673  7489673  7189673  7039673 
deadline    :  6899611  7399605  7499605  7099611  7499605  7499605  7199605  7049605 
deadline    :  7100917  7400917  7500917  7098299  7500917  7500917  7198293  7048293 
deadline    :  7109606  7409606  7509606  7089610  7509606  7509606  7189604  7039604 
deadline    :  7114411  7414411  7514411  7084805  7514411  7514411  7184799  7064411 
deadline    :  7119604  7419604  7519604  7079612  7519604  7519604  7179606  7069604 
deadline    :  7129602  7429602  7529602  7069614  7529602  7529602  7169608  7079602 
deadline    :  7139601  7439601  7539601  7059615  7539601  7539601  7159609  7089601 
deadline    :  7149607  7449607  7549607  7049609  7549607  7549607  7149603  7099607 
deadline    :  7159601  7459601  7559601  7039615  7559601  7559601  7139609  7109601 
deadline    :  7165227  7465227  7565227  7365227  7565227  7565227  7133983  7115227 
deadline    :  7169604  7469604  7569604  7369604  7569604  7569604  7129606  7119604 
deadline    :  7179602  7479602  7579602  7379602  7579602  7579602  7119608  7129602 
deadline    :  7189612  7489612  7589612  7389612  7589612  7589612  7109598  7139612 
deadline    :  7199602  7499602  7599602  7399602  7599602  7599602  7099608  7149602 
deadline    :  7189518  7489518  7609686  7409686  7609686  7609686  7089524  7159686 
deadline    :  7179600  7479600  7619604  7419604  7619604  7619604  7079606  7169604 
deadline    :  7169582  7469582  7629622  7429622  7629622  7629622  7069588  7179622 
deadline    :  7159601  7459601  7639603  7439603  7639603  7639603  7059607  7189603 
deadline    :  7153687  7453687  7645517  7445517  7645517  7645517  7345517  7195517 
deadline    :  7149600  7449600  7649604  7449604  7649604  7649604  7349604  7199604 
deadline    :  7259031  7440173  7659031  7459031  7659031  7659031  7359031  7190177 
deadline    :  7269625  7429579  7669625  7469625  7669625  7669625  7369625  7179583 
deadline    :  7272541  7426663  7672541  7472541  7672541  7672541  7372541  7222541 
deadline    :  7279607  7419597  7679607  7479607  7679607  7679607  7379607  7229607 
deadline    :  7289603  7409601  7689603  7489603  7689603  7689603  7389603  7239603 
deadline    :  7299602  7399602  7699602  7499602  7699602  7699602  7399602  7249602 
deadline    :  7309621  7389583  7709621  7509621  7709621  7709621  7409621  7259621 
deadline    :  7218730  7700512  7618730  7418730  7618730  7618730  7318730  7168730 
deadline    :  7210429  7708813  7610429  7410429  7610429  7610429  7310429  7358813 
deadline    :  7209639  7709603  7609639  7409639  7609639  7609639  7309639  7359603 
deadline    :  7414706  7714706  7604536  7404536  7604536  7604536  7304536  7364706 
deadline    :  7419629  7719629  7599613  7399613  7599613  7599613  7299613  7369629 
deadline    :  7429621  7729621  7589621  7389621  7589621  7589621  7289621  7379621 
deadline    :  7439602  7739602  7579640  7379640  7579640  7579640  7279640  7389602 
deadline    :  7449613  7749613  7569629  7369629  7569629  7569629  7269629  7399613 
deadline    :  7459601  7759601  7559641  7359641  7559641  7559641  7259641  7409601 
deadline    :  7469619  7769619  7549623  7349623  7549623  7549623  7249623  7419619 
deadline    :  7479598  7779598  7539644  7339644  7539644  7539644  7239644  7429598 
deadline    :  7484275  7784275  7534967  7334967  7534967  7534967  7584275  7434275 
deadline    :  7489616  7789616  7529626  7329626  7529626  7529626  7589616  7439616 
deadline    :  7499602  7799602  7519640  7319640  7519640  7519640  7599602  7449602 
deadline    :  7509619  7809619  7509623  7309623  7509623  7509623  7609619  7459619 
deadline    :  7519588  7819588  7499654  7299654  7499654  7499654  7619588  7469588 
deadline    :  7523542  7823542  7495700  7723542  7495700  7495700  7623542  7473542 
deadline    :  7529647  7829647  7489595  7729647  7489595  7489595  7629647  7479647 
deadline    :  7539616  7839616  7479626  7739616  7479626  7479626  7639616  7489616 
deadline    :  7549624  7849624  7469618  7749624  7469618  7469618  7649624  7499624 
deadline    :  7559689  7859689  7459553  7759689  7459553  7459553  7659689  7489559 
deadline    :  7569611  7869611  7449631  7769611  7449631  7449631  7669611  7479637 
deadline    :  7579603  7879603  7439639  7779603  7439639  7439639  7679603  7469645 
deadline    :  7589601  7889601  7429641  7789601  7429641  7429641  7689601  7459647 
deadline    :  7599608  7899608  7419634  7799608  7419634  7419634  7699608  7449640 
deadline    :  7589543  7909673  7409569  7809673  7409569  7409569  7709673  7439575 
deadline    :  7579611  7919605  7399637  7819605  7399637  7399637  7719605  7429643 
deadline    :  7573447  7925769  7393473  7825769  7393473  7393473  7725769  7575769 
deadline    :  7569622  7929594  7389648  7829594  7389648  7389648  7729594  7579594 
deadline    :  7559635  7939581  7379661  7839581  7379661  7379661  7739581  7589581 
deadline    :  7549615  7949601  7369641  7849601  7369641  7369641  7749601  7599601 
deadline    :  7539632  7959584  7359658  7859584  7359658  7359658  7759584  7609584 
deadline    :  7529618  7969598  7349644  7869598  7349644  8069598  7769598  7619598 
deadline    :  7520813  7978403  8078403  7878403  7340839  8078403  7778403  7628403 
deadline    :  7519618  7979598  8079598  7879598  7339644  8079598  7779598  7629598 
deadline    :  7513659  7985557  8085557  7885557  8085557  8085557  7785557  7635557 
deadline    :  7509585  7989631  8089631  7889631  8089631  8089631  7789631  7639631 
deadline    :  7499613  7999603  8099603  7899603  8099603  8099603  7799603  7649603 
deadline    :  7701842  7997364  8101842  7901842  8101842  8101842  7797364  7647364 
deadline    :  7709663  7989543  8109663  7909663  8109663  8109663  7789543  7639543 
deadline    :  7715486  7983720  8115486  7915486  8115486  8115486  7783720  7665486 
deadline    :  7719605  7979601  8119605  7919605  8119605  8119605  7779601  7669605 
deadline    :  7729623  7969583  8129623  7929623  8129623  8129623  7769583  7679623 
deadline    :  7739602  7959604  8139602  7939602  8139602  8139602  7759604  7689602 
deadline    :  7749601  7949605  8149601  7949601  8149601  8149601  7749605  7699601 
deadline    :  7759602  7939604  8159602  7959602  8159602  8159602  7739604  7709602 
deadline    :  7769604  7929602  8169604  7969604  8169604  8169604  7729602  7719604 
deadline    :  7779602  7919604  8179602  7979602  8179602  8179602  7719604  7729602 
deadline    :  7789602  7909604  8189602  7989602  8189602  8189602  7709604  7739602 
deadline    :  7796149  7903057  8196149  7996149  8196149  8196149  7896149  7746149 
deadline    :  7799605  7899601  8199605  7999605  8199605  8199605  7899605  7749605 
deadline    :  7789520  7889516  8209690  7989520  8209690  8209690  7909690  7759690 
deadline    :  7779607  7879603  8219603  7979607  8219603  8219603  7919603  7769603 
deadline    :  7823295  7875911  8223295  7975915  8223295  8223295  7923295  7773295 
deadline    :  7829602  7869604  8229602  7969608  8229602  8229602  7929602  7779602 
deadline    :  7839602  7859604  8239602  7959608  8239602  8239602  7939602  7789602 
deadline    :  7848980  8148980  8248980  7950230  8248980  8248980  7948980  7798980 
deadline    :  7859647  8159647  8259647  7939563  8259647  8259647  7959647  7788313 
deadline    :  7869602  8169602  8269602  7929608  8269602  8269602  7969602  7778358 
deadline    :  7873281  8173281  8273281  7925929  8273281  8273281  7973281  7823281 
deadline    :  7879603  8179603  8279603  7919607  8279603  8279603  7979603  7829603 
deadline    :  7889602  8189602  8289602  7909608  8289602  8289602  7989602  7839602 
deadline    :  7899602  8199602  8299602  7899608  8299602  8299602  7999602  7849602 
deadline    :  7909602  8209602  8309602  7889608  8309602  8309602  8009602  7859602 
deadline    :  7818787  8300417  8218787  8200417  8218787  8218787  7918787  7768787 
deadline    :  7810436  8308768  8210436  8208768  8210436  8210436  7910436  7958768 
deadline    :  7809614  8309590  8209614  8209590  8209614  8209614  7909614  7959590 
deadline    :  8014694  8314694  8204510  8214694  8204510  8204510  7904510  7964694 
deadline    :  8019610  8319610  8199594  8219610  8199594  8199594  7899594  7969610 
deadline    :  8029602  8329602  8189602  8229602  8189602  8189602  7889602  7979602 
deadline    :  8039600  8339600  8179604  8239600  8179604  8179604  7879604  7989600 
deadline    :  8049600  8349600  8169604  8249600  8169604  8169604  7869604  7999600 
deadline    :  8059599  8359599  8159605  8259599  8159605  8159605  7859605  8009599 
deadline    :  8069599  8369599  8149605  8269599  8149605  8149605  7849605  8019599 
deadline    :  8079601  8379601  8139603  8279601  8139603  8139603  7839603  8029601 
deadline    :  8084548  8384548  8134656  8284548  8134656  8134656  8184548  8034548 
deadline    :  8089652  8389652  8129552  8289652  8129552  8129552  8189652  8039652 
deadline    :  8099614  8399614  8119590  8299614  8119590  8119590  8199614  8049614 
deadline    :  8109606  8409606  8109598  8309606  8109598  8109598  8209606  8059606 
deadline    :  8119603  8419603  8099601  8319603  8099601  8099601  8219603  8069603 
deadline    :  8129606  8429606  8089598  8329606  8089598  8089598  8229606  8079606 
deadline    :  8139602  8439602  8079602  8339602  8079602  8079602  8239602  8089602 
deadline    :  8149609  8449609  8069595  8349609  8069595  8069595  8249609  8099609 
deadline    :  8159696  8459696  8059508  8359696  8059508  8059508  8259696  8089522 
deadline    :  8169604  8469604  8049600  8369604  8049600  8049600  8269604  8079614 
deadline    :  8179601  8479601  8039603  8379601  8039603  8039603  8279601  8069617 
deadline    :  8189614  8489614  8029590  8389614  8029590  8029590  8289614  8059604 
deadline    :  8199607  8499607  8019597  8399607  8019597  8019597  8299607  8049611 
deadline    :  8189365  8489365  8009355  8389365  8009355  8009355  8309849  8039369 
deadline    :  8179609  8479609  7999599  8379609  7999599  7999599  8319605  8029613 
deadline    :  8177745  8477745  7997735  8377745  7997735  7997735  8321469  8171469 
deadline    :  8169580  8469580  7989570  8369580  7989570  7989570  8329634  8179634 
deadline    :  8159632  8459632  7979622  8359632  7979622  7979622  8339582  8189582 
deadline    :  8149632  8449632  7969622  8349632  7969622  7969622  8349582  8199582 
deadline    :  8139613  8439613  7959603  8339613  7959603  7959603  8359601  8209601 
deadline    :  8134365  8434365  7954355  8334365  7954355  8664849  8364849  8214849 
deadline    :  8131566  8431566  7951556  8331566  8667648  8667648  8367648  8217648 
deadline    :  8130874  8430874  8668340  8330874  8668340  8668340  8368340  8218340 
deadline    :  8119566  8419566  8679648  8319566  8679648  8679648  8379648  8229648 
deadline    :  8283065  8416149  8683065  8316149  8683065  8683065  8383065  8233065 
deadline    :  8289608  8409606  8689608  8309606  8689608  8689608  8389608  8239608 
deadline    :  8299604  8399610  8699604  8299610  8699604  8699604  8399604  8249604 
deadline    :  8309752  8389462  8709752  8289462  8709752  8709752  8389456  8239456 
deadline    :  8319604  8379610  8719604  8279610  8719604  8719604  8379604  8229604 
deadline    :  8323415  8375799  8723415  8275799  8723415  8723415  8375793  8273415 
deadline    :  8329604  8369610  8729604  8269610  8729604  8729604  8369604  8279604 
deadline    :  8339603  8359611  8739603  8259611  8739603  8739603  8359605  8289603 
deadline    :  8348122  8351092  8748122  8548122  8748122  8748122  8351086  8298122 
deadline    :  8349623  8349591  8749623  8549623  8749623  8749623  8349585  8299623 
deadline    :  8359604  8339610  8759604  8559604  8759604  8759604  8339604  8309604 
deadline    :  8369604  8329610  8769604  8569604  8769604  8769604  8329604  8319604 
deadline    :  8379621  8319593  8779621  8579621  8779621  8779621  8319587  8329621 
deadline    :  8389619  8309595  8789619  8589619  8789619  8789619  8309589  8339619 
deadline    :  8399603  8299611  8799603  8599603  8799603  8799603  8299605  8349603 
deadline    :  8389555  8289563  8809651  8609651  8809651  8809651  8289557  8359651 
deadline    :  8379601  8279609  8819605  8619605  8819605  8819605  8279603  8369605 
deadline    :  8369586  8269594  8829620  8629620  8829620  8829620  8269588  8379620 
deadline    :  8361157  8738049  8838049  8638049  8838049  8838049  8261159  8388049 
deadline    :  8359601  8739605  8839605  8639605  8839605  8839605  8259603  8389605 
deadline    :  8349603  8749603  8849603  8649603  8849603  8849603  8249605  8399603 
deadline    :  8339559  8759647  8859647  8659647  8859647  8859647  8239561  8389559 
deadline    :  8330446  8768760  8868760  8668760  8868760  8868760  8568760  8380446 
deadline    :  8319600  8779606  8879606  8679606  8879606  8879606  8579606  8369600 
deadline    :  8482561  8782561  8882561  8682561  8882561  8882561  8582561  8366645 
deadline    :  8489604  8789604  8889604  8689604  8889604  8889604  8589604  8359602 
deadline    :  8378715  8900493  8778715  8578715  8778715  8778715  8478715  8248713 
deadline    :  8370307  8908901  8770307  8570307  8770307  8770307  8470307  8558901 
deadline    :  8369620  8909588  8769620  8569620  8769620  8769620  8469620  8559588 
deadline    :  8614874  8914874  8764334  8564334  8764334  8764334  8464334  8564874 
deadline    :  8619617  8919617  8759591  8559591  8759591  8759591  8459591  8569617 
deadline    :  8629603  8929603  8749605  8549605  8749605  8749605  8449605  8579603 
deadline    :  8639595  8939595  8739613  8539613  8739613  8739613  8439613  8589595 
deadline    :  8649580  8949580  8729628  8529628  8729628  8729628  8429628  8599580 
deadline    :  8659578  8959578  8719630  8519630  8719630  8719630  8419630  8609578 
deadline    :  8663960  8963960  8715248  8515248  8715248  8715248  8763960  8613960 
deadline    :  8669643  8969643  8709565  8509565  8709565  8709565  8769643  8619643 
deadline    :  8679609  8979609  8699599  8499599  8699599  8699599  8779609  8629609 
deadline    :  8689599  8989599  8689609  8489609  8689609  8689609  8789599  8639599 
deadline    :  8699614  8999614  8679594  8479594  8679594  8679594  8799614  8649614 
deadline    :  8703908  8995320  8675300  8903908  8675300  8675300  8803908  8653908 
deadline    :  8709713  8989515  8669495  8909713  8669495  8669495  8809713  8659713 
deadline    :  8719623  8979605  8659585  8919623  8659585  8659585  8819623  8669623 
deadline    :  8729627  8969601  8649581  8929627  8649581  8649581  8829627  8679627 
deadline    :  8739609  8959619  8639599  8939609  8639599  8639599  8839609  8689609 
deadline    :  8749607  8949621  8629601  8949607  8629601  8629601  8849607  8699607 
deadline    :  8759695  8939533  8619513  8959695  8619513  8619513  8859695  8689519 
deadline    :  8769605  8929623  8609603  8969605  8609603  8609603  8869605  8679609 
deadline    :  8779608  8919620  8599600  8979608  8599600  8599600  8879608  8669606 
deadline    :  8789602  8909626  8589606  8989602  8589606  8589606  8889602  8659612 
deadline    :  8799617  8899611  8579591  8999617  8579591  8579591  8899617  8649597 
deadline    :  8789556  8889550  8569530  9009678  8569530  8569530  8909678  8639536 
deadline    :  8779645  8879639  8559619  9019589  8559619  8559619  8919589  8629625 
deadline    :  8769653  8869647  8549627  9029581  8549627  8549627  8929581  8619633 
deadline    :  8759635  8859629  8539609  9039599  8539609  8539609  8939599  8609615 
deadline    :  8749651  8849645  8529625  9049583  8529625  8529625  8949583  8599631 
deadline    :  8742442  8842436  8522416  9056792  9256792  8522416  8956792  8592422 
deadline    :  8739646  8839640  8519620  9059588  9259588  8519620  8959588  8589626 
deadline    :  8738714  8838708  8518688  9060520  9260520  9260520  8960520  8588694 
deadline    :  8737669  8837663  9261565  9061565  9261565  9261565  8961565  8587649 
deadline    :  8731255  8831249  9267979  9067979  9267979  9267979  8967979  8817979 
deadline    :  8719584  8819578  9279650  9079650  9279650  9279650  8979650  8829650 
deadline    :  8882876  8816352  9282876  9082876  9282876  9282876  8982876  8832876 
deadline    :  8889608  8809620  9289608  9089608  9289608  9289608  8989608  8839608 
deadline    :  8899603  8799625  9299603  9099603  9299603  9299603  8999603  8849603 
deadline    :  8909732  8789496  9309732  9109732  9309732  9309732  8989474  8839474 
deadline    :  8919604  8779624  9319604  9119604  9319604  9319604  8979602  8829602 
deadline    :  8929602  8769626  9329602  9129602  9329602  9329602  8969604  8819604 
deadline    :  8932616  9232616  9332616  9132616  9332616  9332616  8966590  8816590 
deadline    :  8936428  9236428  9336428  9136428  9336428  9336428  8962778  8886428 
deadline    :  8939605  9239605  9339605  9139605  9339605  9339605  8959601  8889605 
deadline    :  8949602  9249602  9349602  9149602  9349602  9349602  8949604  8899602 
deadline    :  8959602  9259602  9359602  9159602  9359602  9359602  8939604  8909602 
deadline    :  8969601  9269601  9369601  9169601  9369601  9369601  8929605  8919601 
deadline    :  8979605  9279605  9379605  9179605  9379605  9379605  8919601  8929605 
deadline    :  8989601  9289601  9389601  9189601  9389601  9389601  8909605  8939601 
deadline    :  8999610  9299610  9399610  9199610  9399610  9399610  8899596  8949610 
deadline    :  8989533  9309687  9409687  9189533  9409687  9409687  8889519  8959687 
deadline    :  8980950  9318270  9418270  9180950  9418270  9418270  9118270  8968270 
deadline    :  8979617  9319603  9419603  9179617  9419603  9419603  9119603  8969603 
deadline    :  8969619  9329601  9429601  9169619  9429601  9429601  9129601  8979601 
deadline    :  9033049  9333049  9433049  9166171  9433049  9433049  9133049  8983049 
deadline    :  9039603  9339603  9439603  9159617  9439603  9439603  9139603  8989603 
deadline    :  9049602  9349602  9449602  9149618  9449602  9449602  9149602  8999602 
deadline    :  9059643  9359643  9459643  9139577  9459643  9459643  9159643  8989561 
deadline    :  9069601  9369601  9469601  9129619  9469601  9469601  9169601  8979603 
deadline    :  9073481  9373481  9473481  9125739  9473481  9473481  9173481  9023481 
deadline    :  9079602  9379602  9479602  9119618  9479602  9479602  9179602  9029602 
deadline    :  9089601  9389601  9489601  9109619  9489601  9489601  9189601  9039601 
deadline    :  9099601  9399601  9499601  9099619  9499601  9499601  9199601  9049601 
deadline    :  8998691  9298691  9398691  9400511  9398691  9398691  9098691  8948691 
deadline    :  8990214  9290214  9390214  9408988  9390214  9390214  9090214  9158988 
deadline    :  8989613  9289613  9389613  9409589  9389613  9389613  9089613  9159589 
deadline    :  9215021  9284181  9384181  9415021  9384181  9384181  9084181  9165021 
deadline    :  9219615  9279587  9379587  9419615  9379587  9379587  9079587  9169615 
deadline    :  9229608  9269594  9369594  9429608  9369594  9369594  9069594  9179608 
deadline    :  9239601  9259601  9359601  9439601  9359601  9359601  9059601  9189601 
deadline    :  9249601  9249601  9349601  9449601  9349601  9349601  9049601  9199601 
deadline    :  9259593  9239609  9339609  9459593  9339609  9339609  9039609  9209593 
deadline    :  9269580  9229622  9329622  9469580  9329622  9329622  9029622  9219580 
deadline    :  9274660  9224542  9324542  9474660  9324542  9324542  9374660  9224660 
deadline    :  9279630  9219572  9319572  9479630  9319572  9319572  9379630  9229630 
deadline    :  9289602  9209600  9309600  9489602  9309600  9309600  9389602  9239602 
deadline    :  9299601  9199601  9299601  9499601  9299601  9299601  9399601  9249601 
deadline    :  9309601  9189601  9289601  9509601  9289601  9289601  9409601  9259601 
deadline    :  9313821  9613821  9285381  9513821  9285381  9285381  9413821  9263821 
deadline    :  9319610  9619610  9279592  9519610  9279592  9279592  9419610  9269610 
deadline    :  9329608  9629608  9269594  9529608  9269594  9269594  9429608  9279608 
deadline    :  9339603  9639603  9259599  9539603  9259599  9259599  9439603  9289603 
deadline    :  9349601  9649601  9249601  9549601  9249601  9249601  9449601  9299601 
deadline    :  9359690  9659690  9239512  9559690  9239512  9239512  9459690  9289512 
deadline    :  9369602  9669602  9229600  9569602  9229600  9229600  9469602  9279600 
deadline    :  9379600  9679600  9219602  9579600  9219602  9219602  9479600  9269602 
deadline    :  9389606  9689606  9209596  9589606  9209596  9209596  9489606  9259596 
deadline    :  9399601  9699601  9199601  9599601  9199601  9199601  9499601  9249601 
deadline    :  9389526  9709676  9189526  9589526  9189526  9189526  9509676  9239526 
deadline    :  9379582  9719620  9179582  9579582  9179582  9179582  9519620  9229582 
deadline    :  9369617  9729585  9169617  9569617  9169617  9169617  9529585  9219617 
deadline    :  9359621  9739581  9159621  9559621  9159621  9159621  9539581  9209621 
deadline    :  9349601  9749601  9149601  9549601  9149601  9149601  9549601  9199601 
deadline    :  9339619  9759583  9139619  9539619  9139619  9139619  9559583  9189619 
deadline    :  9331596  9767606  9131596  9531596  9867606  9131596  9567606  9181596 
deadline    :  9329620  9769582  9129620  9529620  9869582  9129620  9569582  9179620 
deadline    :  9326815  9772387  9872387  9526815  9872387  9126815  9572387  9176815 
deadline    :  9321861  9777341  9877341  9521861  9877341  9121861  9577341  9427341 
deadline    :  9320779  9778423  9878423  9520779  9878423  9878423  9578423  9428423 
deadline    :  9309564  9789638  9889638  9509564  9889638  9889638  9589638  9439638 
deadline    :  9493354  9793354  9893354  9505848  9893354  9893354  9593354  9443354 
deadline    :  9499606  9799606  9899606  9499596  9899606  9899606  9599606  9449606 
deadline    :  9509710  9809710  9909710  9489492  9909710  9909710  9589502  9439502 
deadline    :  9519605  9819605  9919605  9479597  9919605  9919605  9579607  9429607 
deadline    :  9523648  9823648  9923648  9475554  9923648  9923648  9575564  9473648 
deadline    :  9529604  9829604  9929604  9469598  9929604  9929604  9569608  9479604 
deadline    :  9539602  9839602  9939602  9459600  9939602  9939602  9559610  9489602 
deadline    :  9549601  9849601  9949601  9449601  9949601  9949601  9549611  9499601 
deadline    :  9559602  9859602  9959602  9439600  9959602  9959602  9539610  9509602 
deadline    :  9561003  9861003  9961003  9761003  9961003  9961003  9538209  9511003 
deadline    :  9569604  9869604  9969604  9769604  9969604  9969604  9529608  9519604 
deadline    :  9579602  9879602  9979602  9779602  9979602  9979602  9519610  9529602 
deadline    :  9589602  9889602  9989602  9789602  9989602  9989602  9509610  9539602 
deadline    :  9599601  9899601  9999601  9799601  9999601  9999601  9499611  9549601 
deadline    :  9589551  9909651 10009651  9809651 10009651 10009651  9489561  9559651 
deadline    :  9579599  9919603 10019603  9819603 10019603 10019603  9479609  9569603 
deadline    :  9569600  9929602 10029602  9829602 10029602 10029602  9469610  9579602 
deadline    :  9559600  9939602 10039602  9839602 10039602 10039602  9459610  9589602 
deadline    :  9555856  9943346 10043346  9843346 10043346 10043346  9743346  9593346 
deadline    :  9549600  9949602 10049602  9849602 10049602 10049602  9749602  9599602 
deadline    :  9657387  9957387 10057387  9857387 10057387 10057387  9757387  9591817 
deadline    :  9659603  9959603 10059603  9859603 10059603 10059603  9759603  9589601 
deadline    :  9669601  9969601 10069601  9869601 10069601 10069601  9769601  9579603 
deadline    :  9700158  9939044 10100158  9900158 10100158 10100158  9800158  9650158 
deadline    :  9709623  9929579 10109623  9909623 10109623 10109623  9809623  9659623 
deadline    :  9719602  9919600 10119602  9919602 10119602 10119602  9819602  9669602 
deadline    :  9729622  9909580 10129622  9929622 10129622 10129622  9829622  9679622 
deadline    :  9658741 10100503 10058741  9858741 10058741 10058741  9758741  9608741 
deadline    :  9650200 10109044 10050200  9850200 10050200 10050200  9750200  9759044 
deadline    :  9639614 10119630 10039614  9839614 10039614 10039614  9739614  9769630 
deadline    :  9822246 10122246 10036998  9836998 10036998 10036998  9736998  9772246 
deadline    :  9829603 10129603 10029641  9829641 10029641 10029641  9729641  9779603 
deadline    :  9839600 10139600 10019644  9819644 10019644 10019644  9719644  9789600 
deadline    :  9849600 10149600 10009644  9809644 10009644 10009644  9709644  9799600 
deadline    :  9859599 10159599  9999645  9799645  9999645  9999645  9699645  9809599 
deadline    :  9869599 10169599  9989645  9789645  9989645  9989645  9689645  9819599 
deadline    :  9879599 10179599  9979645  9779645  9979645  9979645  9679645  9829599 
deadline    :  9889599 10189599  9969645  9769645  9969645  9969645  9669645  9839599 
deadline    :  9899599 10199599  9959645  9759645  9959645  9959645  9659645  9849599 
deadline    :  9903421 10203421  9955823  9755823  9955823  9955823 10003421  9853421 
deadline    :  9909647 10209647  9949597  9749597  9949597  9949597 10009647  9859647 
deadline    :  9919605 10219605  9939639  9739639  9939639  9939639 10019605  9869605 
deadline    :  9929603 10229603  9929641  9729641  9929641  9929641 10029603  9879603 
deadline    :  9939621 10239621  9919623  9719623  9919623  9919623 10039621  9889621 
deadline    :  9944355 10244355  9914889 10144355  9914889  9914889 10044355  9894355 
deadline    :  9949660 10249660  9909584 10149660  9909584  9909584 10049660  9899660 
deadline    :  9959714 10259714  9899530 10159714  9899530  9899530 10059714  9889606 
deadline    :  9969600 10269600  9889644 10169600  9889644  9889644 10069600  9879720 
deadline    :  9973760 10273760  9885484 10173760  9885484  9885484 10073760  9923760 
deadline    :  9979608 10279608  9879636 10179608  9879636  9879636 10079608  9929608 
deadline    :  9989600 10289600  9869644 10189600  9869644  9869644 10089600  9939600 
deadline    :  9999599 10299599  9859645 10199599  9859645  9859645 10099599  9949599 
deadline    :  9989530 10309668  9849576 10209668  9849576  9849576 10109668  9959668 
deadline    :  9979599 10319599  9839645 10219599  9839645  9839645 10119599  9969599 
deadline    :  9969601 10329597  9829647 10229597  9829647  9829647 10129597  9979597 
deadline    :  9959596 10339602  9819642 10239602  9819642  9819642 10139602  9989602 
deadline    :  9949617 10349581  9809663 10249581  9809663  9809663 10149581  9999581 
deadline    :  9939619 10359579  9799665 10259579  9799665  9799665 10159579 10009579 
deadline    :  9929600 10369598  9789646 10269598  9789646  9789646 10169598 10019598 
deadline    :  9919618 10379580  9779664 10279580  9779664  9779664 10179580 10029580 
deadline    :  9909954 10389244  9770000 10289244  9770000 10489244 10189244 10039244 
deadline    :  9901566 10397632 10497632 10297632  9761612 10497632 10197632 10047632 
deadline    :  9899602 10399596 10499596 10299596  9759648 10499596 10199596 10049596 
deadline    :  9894677 10404521 10504521 10304521 10504521 10504521 10194671 10044671 
deadline    :  9889615 10409583 10509583 10309583 10509583 10509583 10189609 10039609 
deadline    : 10111528 10411528 10511528 10311528 10511528 10511528 10187664 10037664 
deadline    : 10119638 10419638 10519638 10319638 10519638 10519638 10179554 10029554 
deadline    : 10126526 10426526 10526526 10326526 10526526 10526526 10172666 10076526 
deadline    : 10129607 10429607 10529607 10329607 10529607 10529607 10169585 10079607 
deadline    : 10139604 10439604 10539604 10339604 10539604 10539604 10159588 10089604 
deadline    : 10149603 10449603 10549603 10349603 10549603 10549603 10149589 10099603 
deadline    : 10159604 10459604 10559604 10359604 10559604 10559604 10139588 10109604 
deadline    : 10169604 10469604 10569604 10369604 10569604 10569604 10129588 10119604 
deadline    : 10179603 10479603 10579603 10379603 10579603 10579603 10119589 10129603 
deadline    : 10189603 10489603 10589603 10389603 10589603 10589603 10109589 10139603 
deadline    : 10199603 10499603 10599603 10399603 10599603 10599603 10099589 10149603 
TA GRADE,	Energy,	4101936100	0
Scheduler program finished.
